<?xml version="1.0" encoding="utf-8"?>
<!-- Generator: Adobe Illustrator 26.3.1, SVG Export Plug-In . SVG Version: 6.00 Build 0)  -->
<svg version="1.1" id="Ebene_1" xmlns="http://www.w3.org/2000/svg" xmlns:xlink="http://www.w3.org/1999/xlink" x="0px" y="0px"
	 viewBox="0 0 60 60" style="enable-background:new 0 0 60 60;" xml:space="preserve">
<style type="text/css">
	.st0{fill:#323030;}
</style>
<g>
	<path class="st0" d="M57,12.3c1.1,0,2,0.9,2,2v32.5c0,1.1-0.9,2-2,2H3c-1.1,0-2-0.9-2-2V14.3c0-1.1,0.9-2,2-2H57 M57,11.3H3
		c-1.7,0-3,1.3-3,3v32.5c0,1.7,1.3,3,3,3h54c1.7,0,3-1.3,3-3V14.3C60,12.6,58.7,11.3,57,11.3L57,11.3z"/>
</g>
<path class="st0" d="M56.6,45.6c0.2,0.2,0.2,0.5,0.1,0.7c-0.1,0.1-0.2,0.2-0.4,0.2c-0.1,0-0.2,0-0.3-0.1L37.2,31.2l-7,5.7
	C30.1,37,30,37,29.9,37s-0.2,0-0.3-0.1l-7-5.7L4,46.2c-0.2,0.2-0.5,0.1-0.7-0.1c-0.2-0.2-0.1-0.5,0.1-0.7l18.3-14.8L3.4,15.8
	c-0.2-0.2-0.2-0.5-0.1-0.7C3.5,14.9,3.8,14.8,4,15l25.9,20.9L56,14.8c0.2-0.2,0.5-0.1,0.7,0.1c0.2,0.2,0.1,0.5-0.1,0.7L38,30.6
	L56.6,45.6z"/>
</svg>
